…
    ##   media.idade mediana.idade
    ## 1    42.28133            40

Resumindo variáveis por grupo: função group\_by(.) e summarize(.)
-----------------------------------------------------------------

``` r
# Calculando a media da variável idade para as combinações entre sexo, escolaridade e estado civil e a frequencia de indivíduos em cada combinação
grupo = group_by(base, sexo, escolaridade, estado_civil)
resultado=summarise(grupo,  media.idade = mean(idade),frequencia=n())
resultado
```

    ## # A tibble: 72 x 5
    ## # Groups:   sexo, escolaridade [?]
    ##         sexo escolaridade  estado_civil media.idade frequencia
    ##       <fctr>        <ord>        <fctr>       <dbl>      <int>
    ##  1 Masculino   Analfabeto      Solteiro    41.21746       1890
    ##  2 Masculino   Analfabeto União estavel    55.91661       1547
    ##  3 Masculino   Analfabeto        Casado    71.80420        286
    ##  4 Masculino   Analfabeto         Viuvo    54.76404         89
    ##  5 Masculino   Analfabeto    Divorciado    42.89286         84
    ##  6 Masculino   Analfabeto  Desconhecido    46.79832        119
    ##  7 Masculino        1 a 3      Solteiro    34.96684       5277
    ##  8 Masculino        1 a 3 União estavel    52.21151       4430
    ##  9 Masculino        1 a 3        Casado    68.39024        574
    ## 10 Masculino        1 a 3         Viuvo    51.04595        457
    ## # ... with 62 more rows

``` r
# Calculando a media da variável idade para as combinações entre idade legal, escolaridade e estado civil e a frequencia de indivíduos em cada combinação
grupo = group_by(base, id_legal, escolaridade, estado_civil)
resultado=summarise(grupo,  media.idade = mean(idade),frequencia=n())
resultado
```

    ## # A tibble: 70 x 5
    ## # Groups:   id_legal, escolaridade [?]
    ##    id_legal escolaridade  estado_civil media.idade frequencia
    ##      <fctr>        <ord>        <fctr>       <dbl>      <int>
    ##  1      Não   Analfabeto      Solteiro    22.18705        139
    ##  2      Não   Analfabeto União estavel    22.23077         13
    ##  3      Não   Analfabeto         Viuvo    22.00000          2
    ##  4      Não   Analfabeto    Divorciado    21.50000          4
    ##  5      Não   Analfabeto  Desconhecido    23.25000          4
    ##  6      Não        1 a 3      Solteiro    22.02111        758
    ##  7      Não        1 a 3 União estavel    22.30233         43
    ##  8      Não        1 a 3        Casado    22.50000          2
    ##  9      Não        1 a 3         Viuvo    23.00000          1
    ## 10      Não        1 a 3    Divorciado    22.09091         11
    ## # ... with 60 more rows
…
